{
    "packages_enabled": false,
    "service_desk_enabled": true,
    "issues_access_level": "enabled",
    "repository_access_level": "enabled",
    "merge_requests_access_level": "enabled",
    "forking_access_level": "enabled",
    "wiki_access_level": "disabled",
    "builds_access_level": "disabled",
    "snippets_access_level": "disabled",
    "pages_access_level": "disabled",
    "operations_access_level": "disabled",
    "analytics_access_level": "disabled",
    "container_registry_access_level": "disabled",
    "security_and_compliance_access_level": "disabled",
    "releases_access_level": "enabled",
    "environments_access_level": "disabled",
    "feature_flags_access_level": "disabled",
    "infrastructure_access_level": "disabled",
    "monitor_access_level": "disabled",
    "lfs_enabled": false,
    "request_access_enabled": false,
    "auto_devops_enabled": false
}
